So. If restricting the SSLSocket cipher suites and protocols according to the client is what they want, then the easy AND INTELLIGENT way to do it is:

(Client side)

SSLParameters para = new SSLParameters(String[] cipherSuites, String[] protocols);
SSLSocketObject.setSSLParameters(para);

For reference, here is the list of supported protocol parameters:

SSLv3
TLSv1
SSLv2Hello

And here's the default supported cipher suites. Keep note that in a handshake, the most secure common suite will be chosen.

TLS_ECDHE_ECDSA_WITH_AES_256_CBC_SHA384 	  	  	  	  	
TLS_ECDHE_RSA_WITH_AES_256_CBC_SHA384 	  	  	  	  	
TLS_RSA_WITH_AES_256_CBC_SHA256 	  	  	  	  
TLS_ECDH_ECDSA_WITH_AES_256_CBC_SHA384 	  	  	  	  
TLS_ECDH_RSA_WITH_AES_256_CBC_SHA384 	  	  	  	  
TLS_DHE_RSA_WITH_AES_256_CBC_SHA256 	  	  	  	  
TLS_DHE_DSS_WITH_AES_256_CBC_SHA256 	  	  	  	  
TLS_ECDHE_ECDSA_WITH_AES_256_CBC_SHA 	  
TLS_ECDHE_RSA_WITH_AES_256_CBC_SHA 	  	
TLS_RSA_WITH_AES_256_CBC_SHA 	  	
TLS_ECDH_ECDSA_WITH_AES_256_CBC_SHA 	  
TLS_ECDH_RSA_WITH_AES_256_CBC_SHA 	  	  
TLS_DHE_RSA_WITH_AES_256_CBC_SHA 	  	
TLS_DHE_DSS_WITH_AES_256_CBC_SHA 	  	
TLS_ECDHE_ECDSA_WITH_AES_128_CBC_SHA256 	  	  	  	  
TLS_ECDHE_RSA_WITH_AES_128_CBC_SHA256 	  	  	  	  	
TLS_RSA_WITH_AES_128_CBC_SHA256 	  	  	  	  	
TLS_ECDH_ECDSA_WITH_AES_128_CBC_SHA256 	  	  	  	  	
TLS_ECDH_RSA_WITH_AES_128_CBC_SHA256 	  	  	  	  	
TLS_DHE_RSA_WITH_AES_128_CBC_SHA256 	  	  	  	  	
TLS_DHE_DSS_WITH_AES_128_CBC_SHA256 	  	  	  	  	
TLS_ECDHE_ECDSA_WITH_AES_128_CBC_SHA 	  	  	  	
TLS_ECDHE_RSA_WITH_AES_128_CBC_SHA 	  	  	  	
TLS_RSA_WITH_AES_128_CBC_SHA 	  	
TLS_ECDH_ECDSA_WITH_AES_128_CBC_SHA 	  	  	  
TLS_ECDH_RSA_WITH_AES_128_CBC_SHA 	  	  	  	
TLS_DHE_RSA_WITH_AES_128_CBC_SHA 	  	
TLS_DHE_DSS_WITH_AES_128_CBC_SHA 	  	
TLS_ECDHE_ECDSA_WITH_RC4_128_SHA 	  	  	  	
TLS_ECDHE_RSA_WITH_RC4_128_SHA 	  	  	  
SSL_RSA_WITH_RC4_128_SHA 	
TLS_ECDH_ECDSA_WITH_RC4_128_SHA 	  	  	  	
TLS_ECDH_RSA_WITH_RC4_128_SHA 	  	  	  	
TLS_ECDHE_ECDSA_WITH_3DES_EDE_CBC_SHA 	  	  	  	
TLS_ECDHE_RSA_WITH_3DES_EDE_CBC_SHA 	  	  	  	
SSL_RSA_WITH_3DES_EDE_CBC_SHA 		
TLS_ECDH_ECDSA_WITH_3DES_EDE_CBC_SHA 	  	  
TLS_ECDH_RSA_WITH_3DES_EDE_CBC_SHA 	
SSL_DHE_RSA_WITH_3DES_EDE_CBC_SHA 	
SSL_DHE_DSS_WITH_3DES_EDE_CBC_SHA 	
SSL_RSA_WITH_RC4_128_MD5 	
TLS_EMPTY_RENEGOTIATION_INFO_SCSV2